\relax 
\providecommand\zref@newlabel[2]{}
\providecommand \oddpage@label [2]{}
\@writefile{toc}{\contentsline {section}{\numberline {1}Introduction}{1}\protected@file@percent }
\@writefile{toc}{\contentsline {section}{\numberline {2}Description}{1}\protected@file@percent }
\@writefile{toc}{\contentsline {section}{\numberline {3}Methodology}{1}\protected@file@percent }
\@writefile{toc}{\contentsline {section}{\numberline {4}Implementation}{2}\protected@file@percent }
\@writefile{loa}{\contentsline {algocf}{\numberline {1}{\ignorespaces \texttt  {Crawler}}}{3}\protected@file@percent }
\newlabel{alg:fastTwoSum}{{1}{3}}
\@writefile{loa}{\contentsline {algocf}{\numberline {2}{\ignorespaces \texttt  {Processing Thread}}}{5}\protected@file@percent }
\@writefile{loa}{\contentsline {algocf}{\numberline {3}{\ignorespaces \texttt  {Document Analyser}}}{6}\protected@file@percent }
\newlabel{alg:fastTwoSum}{{3}{6}}
\@writefile{toc}{\contentsline {section}{\numberline {5}Results}{6}\protected@file@percent }
\@writefile{toc}{\contentsline {section}{\numberline {6}Conclusion}{7}\protected@file@percent }
\@writefile{toc}{\contentsline {section}{\numberline {7}References}{7}\protected@file@percent }
\@writefile{toc}{\contentsline {section}{\numberline {8}Apendix}{7}\protected@file@percent }
\@writefile{lof}{\contentsline {figure}{\numberline {1}{\ignorespaces Word not found - program}}{7}\protected@file@percent }
\@writefile{lof}{\contentsline {figure}{\numberline {2}{\ignorespaces Word not found - website}}{7}\protected@file@percent }
\@writefile{lof}{\contentsline {figure}{\numberline {3}{\ignorespaces Autosuggested Correction - program}}{8}\protected@file@percent }
\@writefile{lof}{\contentsline {figure}{\numberline {4}{\ignorespaces Autosuggested Correction - website}}{8}\protected@file@percent }
\@writefile{lof}{\contentsline {figure}{\numberline {5}{\ignorespaces Found list of alternatives - program}}{8}\protected@file@percent }
\@writefile{lof}{\contentsline {figure}{\numberline {6}{\ignorespaces Found list of alternatives - website}}{8}\protected@file@percent }
\@writefile{lof}{\contentsline {figure}{\numberline {7}{\ignorespaces Word found - program}}{9}\protected@file@percent }
\@writefile{lof}{\contentsline {figure}{\numberline {8}{\ignorespaces Word found - website}}{9}\protected@file@percent }
